[
    "input.las",
    {
        "type": "writers.gdal",
        "filename": "dtm.tiff",
        "dimension": "Z",
        "output_type": "idw",
        "resolution": 0.1,
        "where": "Classification == 2"
    }
]

