[
    "input.las",
    {
        "type" : "filters.hag_delaunay",
        "count": 24,
        "allow_extrapolation": "true"
    },
    {
        "type": "writers.copc",
        "filename": "csf-hag_delaunay.copc.laz",
        "forward": "all",
        "extra_dims": "all"
    }
]
